{
    "tabs": [
        {
            "title": "Gelijkvloers",
            "icon": "glyphicon-th",
            "description": "Alle lichten op de begane grond",
            "rows": [
            {
                "pins": [
                    {"style": "display:inline-block;width:49%", "class": "btn-success", "icon": "glyphicon-adjust", "number": 1, "label": "Keuken"},
                    {"style": "display:inline-block;width:49%", "class": "btn-primary", "icon": "glyphicon-adjust", "number": 15, "label": "Living"}
                ]
            },
            {
                "pins": [
                    {"style": "display:inline-block;width:16%", "class": "btn-info", "icon": "glyphicon-adjust", "number": 16, "label": ""},
                    {"style": "display:inline-block;width:33%", "class": "btn-danger", "icon": "glyphicon-adjust", "number": 7, "label": "Inkom"}
                ]
            },
            {
                "pins": [
                    {"style": "display:inline-block;width:16%", "class": "btn-info", "icon": "glyphicon-adjust", "number": 1, "label": ""},
                    {"style": "display:inline-block;width:33%", "class": "btn-warning", "icon": "glyphicon-adjust", "number": 1, "label": "Bureau"}
                ]
            },
            {
                "pins": [
                    {"style": "display:inline-block;width:50%", "class": "btn-primary", "icon": "glyphicon-adjust", "number": 10, "label": "Garage"}
                ]
            }
            ]
        },
        {
            "title": "Verdiep",
            "icon": "glyphicon-th",
            "description": "Alle lichten op het eerste verdiep",
            "rows": [
            {
                "pins": [
                    {"style": "display:inline-block;width:49%", "class": "btn-primary", "icon": "glyphicon-adjust", "number": 1, "label": "Mezzanine"},
                    {"style": "display:inline-block;width:49%", "class": "btn-success", "icon": "", "number": 1, "label": "Vide"}
                ]
            },
            {
                "pins": [
                    {"style": "display:inline-block;width:16%", "class": "btn-warning", "icon": "glyphicon-adjust", "number": 1, "label": ""},
                    {"style": "display:inline-block;width:33%", "class": "btn-info", "icon": "glyphicon-adjust", "number": 1, "label": "Kamer 1"}
                ]
            },
            {
                "pins": [
                    {"style": "display:inline-block;width:16%", "class": "btn-warning", "icon": "glyphicon-adjust", "number": 1, "label": ""},
                    {"style": "display:inline-block;width:33%", "class": "btn-danger", "icon": "glyphicon-adjust", "number": 1, "label": "Badkamer"}
                ]
            },
            {
                "pins": [
                    {"style": "display:inline-block;width:16%", "class": "btn-warning", "icon": "glyphicon-adjust", "number": 1, "label": ""},
                    {"style": "display:inline-block;width:33%", "class": "btn-success", "icon": "glyphicon-adjust", "number": 1, "label": "Kamer 2"}
                ]
            },
            {
                "pins": [
                    {"style": "display:inline-block;width:50%", "class": "btn-success", "icon": "glyphicon-adjust", "number": 1, "label": "Kamer 3"}
                ]
            }
            ]
        },
        {
            "title": "Andere",
            "icon": "glyphicon-th",
            "description": "",
            "rows": [
                {
                    "pins": [
                        {"style": "display:inline-block;width:50%", "class":"btn btn-default", "icon": "glyphicon-adjust", "number": 6, "label": "ALL ON"},
                        {"style": "display:inline-block;width:50%", "class":"btn btn-default", "icon": "glyphicon-adjust", "number": 11, "label": "ALL OF"}
                    ]
                }
            ]
        }
    ],
    "piaddress": "http://192.168.1.145:8000",
    "apptitle": "Remote App",
    "basicauth": "d2ViaW9waTpyYXNwYmVycnk="
}